project_1/project_1.runs/impl_1/1024_iladata/waveform.vcd
$date
        2026-Jul-08 18:50:53
$end
$version
        Vivado v2025.2 (64-bit)
$end
$timescale
        1ps
$end
$scope module dut $end
$var reg 2 " design_1_i/system_ila_0/inst/net_slot_0_axi_ar_cnt [1:0] $end
$var reg 30 $ design_1_i/system_ila_0/inst/net_slot_0_axi_araddr [29:0] $end
$var reg 2 B design_1_i/system_ila_0/inst/net_slot_0_axi_arburst [1:0] $end
$var reg 4 D design_1_i/system_ila_0/inst/net_slot_0_axi_arcache [3:0] $end
$var reg 8 H design_1_i/system_ila_0/inst/net_slot_0_axi_arlen [7:0] $end
$var reg 1 P design_1_i/system_ila_0/inst/net_slot_0_axi_arlock $end
$var reg 3 Q design_1_i/system_ila_0/inst/net_slot_0_axi_arprot [2:0] $end
$var reg 4 T design_1_i/system_ila_0/inst/net_slot_0_axi_arqos [3:0] $end
$var reg 3 X design_1_i/system_ila_0/inst/net_slot_0_axi_arsize [2:0] $end
$var reg 2 [ design_1_i/system_ila_0/inst/net_slot_0_axi_aw_cnt [1:0] $end
$var reg 30 ] design_1_i/system_ila_0/inst/net_slot_0_axi_awaddr [29:0] $end
$var reg 2 { design_1_i/system_ila_0/inst/net_slot_0_axi_awburst [1:0] $end
$var reg 4 } design_1_i/system_ila_0/inst/net_slot_0_axi_awcache [3:0] $end
$var reg 8 #" design_1_i/system_ila_0/inst/net_slot_0_axi_awlen [7:0] $end
$var reg 1 +" design_1_i/system_ila_0/inst/net_slot_0_axi_awlock $end
$var reg 3 ," design_1_i/system_ila_0/inst/net_slot_0_axi_awprot [2:0] $end
$var reg 4 /" design_1_i/system_ila_0/inst/net_slot_0_axi_awqos [3:0] $end
$var reg 3 3" design_1_i/system_ila_0/inst/net_slot_0_axi_awsize [2:0] $end
$var reg 2 6" design_1_i/system_ila_0/inst/net_slot_0_axi_b_cnt [1:0] $end
$var reg 2 8" design_1_i/system_ila_0/inst/net_slot_0_axi_bresp [1:0] $end
$var reg 2 :" design_1_i/system_ila_0/inst/net_slot_0_axi_r_cnt [1:0] $end
$var reg 256 <" design_1_i/system_ila_0/inst/net_slot_0_axi_rdata [255:0] $end
$var reg 2 "% design_1_i/system_ila_0/inst/net_slot_0_axi_rresp [1:0] $end
$var reg 256 $% design_1_i/system_ila_0/inst/net_slot_0_axi_wdata [255:0] $end
$var reg 32 h' design_1_i/system_ila_0/inst/net_slot_0_axi_wstrb [31:0] $end
$var reg 2 *( design_1_i/system_ila_0/inst/net_slot_0_axi_aw_ctrl [1:0] $end
$var reg 1 ,( design_1_i/system_ila_0/inst/net_slot_0_axi_awvalid $end
$var reg 1 -( design_1_i/system_ila_0/inst/net_slot_0_axi_awready $end
$var reg 3 .( design_1_i/system_ila_0/inst/net_slot_0_axi_w_ctrl [2:0] $end
$var reg 1 1( design_1_i/system_ila_0/inst/net_slot_0_axi_wvalid $end
$var reg 1 2( design_1_i/system_ila_0/inst/net_slot_0_axi_wready $end
$var reg 1 3( design_1_i/system_ila_0/inst/net_slot_0_axi_wlast $end
$var reg 1 4( design_1_i/system_ila_0/inst/net_slot_0_axi_bvalid $end
$var reg 2 5( design_1_i/system_ila_0/inst/net_slot_0_axi_b_ctrl [1:0] $end
$var reg 1 7( design_1_i/system_ila_0/inst/net_slot_0_axi_bready $end
$var reg 1 8( design_1_i/system_ila_0/inst/net_slot_0_axi_arvalid $end
$var reg 2 9( design_1_i/system_ila_0/inst/net_slot_0_axi_ar_ctrl [1:0] $end
$var reg 1 ;( design_1_i/system_ila_0/inst/net_slot_0_axi_arready $end
$var reg 3 <( design_1_i/system_ila_0/inst/net_slot_0_axi_r_ctrl [2:0] $end
$var reg 1 ?( design_1_i/system_ila_0/inst/net_slot_0_axi_rvalid $end
$var reg 1 @( design_1_i/system_ila_0/inst/net_slot_0_axi_rready $end
$var reg 1 A( design_1_i/system_ila_0/inst/net_slot_0_axi_rlast $end
$var reg 3 B( AR_Channel__i1_s0___axi_smc_1_M00_AXI_ [2:0] $end
$var reg 3 E( AW_Channel__i1_s0___axi_smc_1_M00_AXI_ [2:0] $end
$var reg 3 H( B_Channel__i1_s0___axi_smc_1_M00_AXI_ [2:0] $end
$var reg 3 K( Interface__i1_s0___axi_smc_1_M00_AXI_ [2:0] $end
$var reg 3 N( R_Channel__i1_s0___axi_smc_1_M00_AXI_ [2:0] $end
$var reg 3 Q( W_Channel__i1_s0___axi_smc_1_M00_AXI_ [2:0] $end
$var reg 16 T( ila_1___slot_0___axi_smc_1_M00_AXI___Write_Transactions_0 [15:0] $end
$var reg 1 d( _TRIGGER $end
$var reg 1 e( _WINDOW $end
$var reg 1 f( _GAP $end
$upscope $end
$enddefinitions $end
#0
$dumpvars
b0 "
b0 $
b1 B
b11 D
b11111 H
0P
b0 Q
b0 T
b101 X
b0 [
b0 ]
b1 {
b11 }
b11111 #"
0+"
b0 ,"
b0 /"
b101 3"
b0 6"
b0 8"
b0 :"
b1100100000110010100000100000101000100110101100011010011000000100010110110101110100010000000111001111101000110101011110011111111111101100101110110010110100110110001000101110010100010110010110000010101101000101011010110111101110001001111101011111001100110100 <"
b0 "%
b100100100110001011001010000100001101111110011011111110011101100111110001010011011100011111001001111111001001010001111100101111000000001101001010111111010101000010110001010110001100011110000001011100100010100010010011011011010011110110101000001100100100 $%
b11111111111111111111111111111111 h'
b10 *(
0,(
1-(
b110 .(
01(
12(
13(
04(
b10 5(
17(
08(
b10 9(
1;(
b110 <(
0?(
1@(
1A(
b11 B(
b0 E(
b0 H(
b0 K(
b100 N(
b0 Q(
b0 T(
0d(
1e(
0f(
$end
#1014
b11 *(
1,(
b10 E(
b1 K(
b1 T(
#1015
b1 [
b1 6"
b0 *(
0,(
0-(
b0 E(
b0 K(
#1024
b1101100110000110001110011011001010111010110010001100010000101100010101101010100011110011101011100000000001000011010000111000101000000110110001011000001000110110110010110111110100010011110101110111101100010101000001000100011011001011001111001111010111111010 $%
b11 .(
11(
03(
b1 K(
b1 Q(
1d(
#1025
b10 .(
01(
b0 K(
b0 Q(
#1032
b1101010111110111101001010111011101001011111010101011011011001000001101111000100011100011110010110001101010101000000101000100111101101011100111111001010111010110101000000111111101111010010101011011000100011001110001101000100010111011110111110000100011100010 $%
b11 .(
11(
b1 K(
b1 Q(
#1033
b10 .(
01(
b0 K(
b0 Q(
#1040
b1011101001101010000000001000000100101100111111100100101010101001010110100011101101010111000111110110111000010110111100010111001101011011010001110001011001111111001111010011110001110101110001010000110101010110011010001011000110110100000001100011111111000100 $%
b11 .(
11(
b1 K(
b1 Q(
#1041
b10 .(
01(
b0 K(
b0 Q(
#1048
b1000101000111110010010011010000110001001001010110110110101000000000000110110101110100000010101000001010001101101010001100001101001100000100111000000111100101010101110000010011111100110111100100110100100110110001010110100011001001000111100110001100000101100 $%
b11 .(
11(
b1 K(
b1 Q(
#1049
b10 .(
01(
b0 K(
b0 Q(
#1056
b1111111110000101101000011111010101100011010000000101111110111001110000111111101110100101001110011110001001100011001111101100001111100101000101110100001010000100111011110110010100110000101011010000011011000011011110001001101111011011000011100110100010100110 $%
b11 .(
11(
b1 K(
b1 Q(
#1057
b10 .(
01(
b0 K(
b0 Q(
#1064
b1011000000111101000001110000101100000001111011111110011010101111110010100010010011010011011000001101000001100111001111100110010101110101010001101011011101111001001110000011100000000101000100100111001000110011001111100001000010100010110100111111010111010110 $%
b11 .(
11(
b1 K(
b1 Q(
#1065
b10 .(
01(
b0 K(
b0 Q(
#1072
b1000000011111001100000101010110010001001110101011001110110000111111010110011101000101100110110100110011100110010110000000101010010110001001101000010000110111010000100100001111111111100000001110000100101101000000001110111101110011111011100000111011100011001 $%
b11 .(
11(
b1 K(
b1 Q(
#1073
b10 .(
01(
b0 K(
b0 Q(
#1080
b111011110011011111000111010001110000000110111010100101111111100001001010110001100001110011001001100011000001010111110101101011001110011010001001111101111101010101110001110010000010000111100111001110011101010000111110011110111110000010100110000101100111010 $%
b11 .(
11(
b1 K(
b1 Q(
#1081
b10 .(
01(
b0 K(
b0 Q(
#1088
b101010000010100110100000101111110001101110110101011111110001100111011000001100110111011000100000100001100110010011111100001011010111101111111000110110011010001001111110001011000010010000010001111100101110111101101100110000001011001010010010110101011110100 $%
b11 .(
11(
b1 K(
b1 Q(
#1089
b10 .(
01(
b0 K(
b0 Q(
#1096
b1011101001010000101111100001111000101101000110111111000110000011000001000011010111010100110000110001011110000001111000000000001111110101110010111010011111100001010000011100010111110010010111101000101111100111101011011010100000011000110100010000100011001111 $%
b11 .(
11(
b1 K(
b1 Q(
#1097
b10 .(
01(
b0 K(
b0 Q(
#1104
b10110100011100100000111101101011010001111000101101010001000001111011111111101001100101010101001010010100010000110010001111111010101001001000110011100111100111101101110000110000100001010101101011000110010000000001110100101010101100010001000011000110110 $%
b11 .(
11(
b1 K(
b1 Q(
#1105
b10 .(
01(
b0 K(
b0 Q(
#1112
b1100001100000110001100100101011011000010010110110000100000101011111101000110101010110011000100101010000111011010101111011000001110000101101011011100010000110011101010010001100011010110000001011110100110111011110011010001011110100111100001011011011111111110 $%
b11 .(
11(
b1 K(
b1 Q(
#1113
b10 .(
01(
b0 K(
b0 Q(
#1120
b111100110000001010011101100011100000101100001101100100000100110010111000011111100011101100101110110000001110011100001011100101101010001110111011010111110000000011000011001100000111101111011100001011010110000010101100001010001110101001111001110110101100 $%
b11 .(
11(
b1 K(
b1 Q(
#1121
b10 .(
01(
b0 K(
b0 Q(
#1128
b11110110001110000000111001111001101111111101000011100110010011110111010010100000001101010101001010010100010000110000101010000100011111010100110110110011000011001010100111001011001111010011110000000100010111110111010010011111100101100110101001100000000111 $%
b11 .(
11(
b1 K(
b1 Q(
#1129
b10 .(
01(
b0 K(
b0 Q(
#1136
b1011011000010011110000000110101001100011110001110011100000101000000101110100111111101011011000101010000000001000000000111010100111000010111101010011011110011111100110100001000111110111100110100011010011010101000010000111010110011000011011010001010010111111 $%
b11 .(
11(
b1 K(
b1 Q(
#1137
b10 .(
01(
b0 K(
b0 Q(
#1144
b111110101011100101011011111010100110011011101000010001011110111101111011111101100110100000011101011010000100101011010110000100011001110110000010111110010011100011101100011110010010110011011110001011000100000011100010011110110101000010101111111111100000110 $%
b11 .(
11(
b1 K(
b1 Q(
#1145
b10 .(
01(
b0 K(
b0 Q(
#1152
b111011010000100100000000110011000100111000101101101101101111111010001001000001100001100000010100111000100001110100110101000111001101100100100001000101111101010001101010111100001000001100110100100101001000000110111100011101010011100100001110001011111100100 $%
b11 .(
11(
b1 K(
b1 Q(
#1153
b10 .(
01(
b0 K(
b0 Q(
#1160
b1010101000010101000111101010111100100101011000101100010110011101100111010111100100101100000101000100010001100010010111011001001000101010001000010000111000011101110010000100110110101011101011111111010110110110000000000011011000100111110101011001011101001000 $%
b11 .(
11(
b1 K(
b1 Q(
#1161
b10 .(
01(
b0 K(
b0 Q(
#1168
b111111110100000011111011010111110101000000011000111000000000010110011000111110101101110110011111100101110101110101010010100110101000111101000111011110110111000111101110110000000001111011010100000000111001001001101110001000010111000000111001100000000000111 $%
b11 .(
11(
b1 K(
b1 Q(
#1169
b10 .(
01(
b0 K(
b0 Q(
#1176
b1010000000010111011001000100100100110011001000001000101010011110011110011001010101000101110111011001101100111001010000111000111000000001000011010100100010101110011000101011101001010001001000101100110001001101101001100011111110000000011010101111001000101101 $%
b11 .(
11(
b1 K(
b1 Q(
#1177
b10 .(
01(
b0 K(
b0 Q(
#1184
b1010100101000101110111011111000010001111000001000110101101111111101111110110100000000010110000001011011001111101010111111100010101100010101110100110000100111001101110000011100100110100110011011001000011001111100111011100100010010111101101101000101010110 $%
b11 .(
11(
b1 K(
b1 Q(
#1185
b10 .(
01(
b0 K(
b0 Q(
#1192
b1001001101110000100010010000011000010110011000000000000010111110111011111001101101010101100110001100011000101101101111111111101001001100011010111011101011001101001111100101001000100000110110111101000000111000010100001101010001110000011101010100011100100000 $%
b11 .(
11(
b1 K(
b1 Q(
#1193
b10 .(
01(
b0 K(
b0 Q(
#1200
b1110000100111110111110111111001011110011110100100111001001111100110000110001111110101000110111111101101100111101100101010111010110110110100101011000110110100001000100110001011010111111111110100111000000100100010001000111010110110001010110100000100100111011 $%
b11 .(
11(
b1 K(
b1 Q(
#1201
b10 .(
01(
b0 K(
b0 Q(
#1208
b1110100000010100100011011010111001011011011111101010111101010011100001011001100000011011110001100001001001110000001100111000010000101101100101001011000100000110011101100011100111011101100110101111000001100000011101101101101110001100100101010010011110000101 $%
b11 .(
11(
b1 K(
b1 Q(
#1209
b10 .(
01(
b0 K(
b0 Q(
#1216
b1101011010000000110111010110111101110101101010100000010111111101010000101010001000100011001001001000000110001001001011110111010011010000110111001111111000000011110111110101000011101011101011000101101001001001011000010100100110000010110111011011110010011010 $%
b11 .(
11(
b1 K(
b1 Q(
#1217
b0 .(
01(
02(
b0 K(
b0 Q(
#1224
b11110110010110000111110110110101001111001100001111010110101001101000100000101111100111011110001100010110100111001100100010100110101111101110110101101001101001010000110100100000101101110111000110000111110100010010100100110110110000111110001000011000111010 $%
b1 .(
11(
#1237
b11 .(
12(
b1 K(
b1 Q(
#1238
b11010111000001000101000100111000110110100110100000101111101000001110100011111001111110111000010011000001100000010111001111000110010001110011000100011000011000111110010100101001110111011101100010110100001001011010100111001110101100011011011110001100100110 $%
#1239
b10 .(
01(
b0 K(
b0 Q(
#1240
b110001100100011001101110111111011010100110011111110010100111100101111100000010000011000010010001001000000111101001111101010100100110111100001110111000000101000101000101000111011110011100010110011100001001000110001001001000110100100011100010000110111100101 $%
b11 .(
11(
b1 K(
b1 Q(
#1241
b10 .(
01(
b0 K(
b0 Q(
#1248
b10011110010100010000000100011001010001111000001111111011101110000001001100111000101111100001010101111110111111010111011101101111100100111111111011010001000110100000001111010011110110111110011001010000000101100111110101011011101100110000101011100001110000 $%
b11 .(
11(
b1 K(
b1 Q(
#1249
b10 .(
01(
b0 K(
b0 Q(
#1256
b1100010000111111011110111001011100001000011111111010011111111111111001001001000011000111101001001110001111000101111100011000000100110111110101011110110100011000110100111101000100010110101000111000101000111001000001101001011010110001101000111001100010110100 $%
b11 .(
11(
b1 K(
b1 Q(
#1257
b10 .(
01(
b0 K(
b0 Q(
#1264
b101010100110000110111010111010001100010001000001110100011010110011011000010101111010000001001001011111000000111110101010010011001111111100011101001011011101011111100000011011101011001110001111010011111001000000111110000011100000110110100101010000101000101 $%
b11 .(
11(
b1 K(
b1 Q(
#1265
b10 .(
01(
b0 K(
b0 Q(
#1272
b1100011110001100011001100011001110001000101000010010100101100110100011111010100100011101000011000000001000011000101010111001111101010110000110111000000011110100011010011011101110111101100101110011001010000001001010111000100001010100101101001111011001001 $%
b111 .(
11(
13(
b1 K(
b111 Q(
#1273
b10 *(
1-(
b110 .(
01(
b0 K(
b0 Q(
#1274
14(
b11 5(
b10 H(
b1 K(
#1275
b0 [
b0 6"
04(
b10 5(
b0 H(
b0 K(
b0 T(
